title,subject,verb,compliment,index,tablekey,tablefile,keyboardfile
1,any subject,verb 'be',n/a,,,,
0,you,be,doctor,0,yoube,be_std_yoube,kbd_be_std_yoube
0,she,be,at home,1,shebe,be_std_shebe,kbd_be_std_shebe
0,he,be,tall,2,hebe,be_std_hebe,kbd_be_std_hebe