null,key,primary,secondary,word,index,color,sfxname
0,1,sub,none,she,,255:255:255:255,SHE
0,2,neg,none,not,,255:255:255:255,NOT
0,3,comp,none,at home,,255:255:255:255,AT HOME
1,4,,,,,,
1,5,,,,,,
0,6,av,none,am,,252:214:177:255,AM
0,7,av,none,are,,252:214:177:255,ARE
0,8,av,none,is,,252:214:177:255,IS
0,9,av,none,will,,215:167:118:255,WILL
0,10,av,none,could,,134:211:205:255,COULD
0,11,av,none,was,,252:214:177:255,WAS
0,12,av,none,were,,252:214:177:255,WERE
0,13,av,none,do,,149:209:149:255,DO
0,14,av,none,does,,149:209:149:255,DOES
0,15,av,none,did,,149:209:149:255,DID
0,16,av,none,be,,252:214:177:255,BE
0,17,av,none,been,,252:214:177:255,BEEN
0,18,av,none,have,,208:179:210:255,HAVE
0,19,av,none,has,,208:179:210:255,HAS
0,20,av,none,had,,208:179:210:255,HAD
0,21,verb,mv,n/a,1,166:222:245:255,
0,22,verb,none,n/a,2,166:222:245:255,
0,23,verb,none,n/a,3,166:222:245:255,
0,24,mv,none,n/a,4,166:222:245:255,
0,25,mv,none,n/a,5,166:222:245:255,